Project/Part A/Project_Verilog.sim/sim_1/behav/xsim/simulate.log
Vivado Simulator 2020.1
Time resolution is 1 ps
Time=0 | PC=0 | Inst=00500e13 | LEDs=x | switches=0 | rst=1
Time=50000 | PC=0 | Inst=00500e13 | LEDs=0 | switches=0 | rst=1
Time=200000 | PC=0 | Inst=00500e13 | LEDs=0 | switches=0 | rst=0
Time=250000 | PC=4 | Inst=1ff00113 | LEDs=0 | switches=0 | rst=0
Time=350000 | PC=8 | Inst=30000293 | LEDs=0 | switches=0 | rst=0
Time=450000 | PC=12 | Inst=20000313 | LEDs=0 | switches=0 | rst=0
Time=550000 | PC=16 | Inst=01c2a023 | LEDs=0 | switches=0 | rst=0
Time=650000 | PC=20 | Inst=00032023 | LEDs=0 | switches=0 | rst=0
Time=750000 | PC=24 | Inst=0002a583 | LEDs=0 | switches=0 | rst=0
Time=850000 | PC=28 | Inst=fe058ee3 | LEDs=0 | switches=0 | rst=0
Time=950000 | PC=24 | Inst=0002a583 | LEDs=0 | switches=0 | rst=0
Time=0 | PC=0 | Inst=00500e13 | LEDs=x | switches=0 | rst=1
Time=50000 | PC=0 | Inst=00500e13 | LEDs=0 | switches=0 | rst=1
Time=200000 | PC=0 | Inst=00500e13 | LEDs=0 | switches=0 | rst=0
Time=250000 | PC=4 | Inst=1ff00113 | LEDs=0 | switches=0 | rst=0
Time=350000 | PC=8 | Inst=30000293 | LEDs=0 | switches=0 | rst=0
Time=450000 | PC=12 | Inst=20000313 | LEDs=0 | switches=0 | rst=0
Time=550000 | PC=16 | Inst=01c2a023 | LEDs=0 | switches=0 | rst=0
Time=650000 | PC=20 | Inst=00032023 | LEDs=0 | switches=0 | rst=0
Time=750000 | PC=24 | Inst=0002a583 | LEDs=0 | switches=0 | rst=0
Time=850000 | PC=28 | Inst=fe058ee3 | LEDs=0 | switches=0 | rst=0
Time=950000 | PC=24 | Inst=0002a583 | LEDs=0 | switches=0 | rst=0
Time=1050000 | PC=28 | Inst=fe058ee3 | LEDs=0 | switches=0 | rst=0
Time=1150000 | PC=24 | Inst=0002a583 | LEDs=0 | switches=0 | rst=0
Time=1250000 | PC=28 | Inst=fe058ee3 | LEDs=0 | switches=0 | rst=0
Time=1350000 | PC=24 | Inst=0002a583 | LEDs=0 | switches=0 | rst=0
Time=1450000 | PC=28 | Inst=fe058ee3 | LEDs=0 | switches=0 | rst=0
Time=1550000 | PC=24 | Inst=0002a583 | LEDs=0 | switches=0 | rst=0
Time=1650000 | PC=28 | Inst=fe058ee3 | LEDs=0 | switches=0 | rst=0
Time=1750000 | PC=24 | Inst=0002a583 | LEDs=0 | switches=0 | rst=0
Time=1850000 | PC=28 | Inst=fe058ee3 | LEDs=0 | switches=0 | rst=0
Time=1950000 | PC=24 | Inst=0002a583 | LEDs=0 | switches=0 | rst=0
Time=2050000 | PC=28 | Inst=fe058ee3 | LEDs=0 | switches=0 | rst=0
Time=2150000 | PC=24 | Inst=0002a583 | LEDs=0 | switches=0 | rst=0
Time=2200000 | PC=24 | Inst=0002a583 | LEDs=0 | switches=3 | rst=0
Time=2250000 | PC=28 | Inst=fe058ee3 | LEDs=0 | switches=3 | rst=0
Time=2350000 | PC=32 | Inst=00058533 | LEDs=0 | switches=3 | rst=0
Time=2450000 | PC=36 | Inst=008000ef | LEDs=0 | switches=3 | rst=0
Time=2550000 | PC=44 | Inst=ff810113 | LEDs=0 | switches=3 | rst=0
Time=2650000 | PC=48 | Inst=00112223 | LEDs=0 | switches=3 | rst=0
Time=2750000 | PC=52 | Inst=00c12023 | LEDs=0 | switches=3 | rst=0
Time=2850000 | PC=56 | Inst=00050633 | LEDs=0 | switches=3 | rst=0
Time=2950000 | PC=60 | Inst=00c32023 | LEDs=0 | switches=3 | rst=0
Time=3050000 | PC=64 | Inst=00060c63 | LEDs=3 | switches=3 | rst=0
Time=3150000 | PC=68 | Inst=fff60613 | LEDs=3 | switches=3 | rst=0
Time=3250000 | PC=72 | Inst=00300693 | LEDs=3 | switches=3 | rst=0
Time=3350000 | PC=76 | Inst=fff68693 | LEDs=3 | switches=3 | rst=0
Time=3450000 | PC=80 | Inst=fe069ee3 | LEDs=3 | switches=3 | rst=0
Time=3550000 | PC=76 | Inst=fff68693 | LEDs=3 | switches=3 | rst=0
Time=3650000 | PC=80 | Inst=fe069ee3 | LEDs=3 | switches=3 | rst=0
Time=3750000 | PC=76 | Inst=fff68693 | LEDs=3 | switches=3 | rst=0
Time=3850000 | PC=80 | Inst=fe069ee3 | LEDs=3 | switches=3 | rst=0
Time=3950000 | PC=84 | Inst=fe0004e3 | LEDs=3 | switches=3 | rst=0
Time=4050000 | PC=60 | Inst=00c32023 | LEDs=3 | switches=3 | rst=0
Time=4150000 | PC=64 | Inst=00060c63 | LEDs=2 | switches=3 | rst=0
Time=4250000 | PC=68 | Inst=fff60613 | LEDs=2 | switches=3 | rst=0
Time=4350000 | PC=72 | Inst=00300693 | LEDs=2 | switches=3 | rst=0
Time=4450000 | PC=76 | Inst=fff68693 | LEDs=2 | switches=3 | rst=0
Time=4550000 | PC=80 | Inst=fe069ee3 | LEDs=2 | switches=3 | rst=0
Time=4650000 | PC=76 | Inst=fff68693 | LEDs=2 | switches=3 | rst=0
Time=4750000 | PC=80 | Inst=fe069ee3 | LEDs=2 | switches=3 | rst=0
Time=4850000 | PC=76 | Inst=fff68693 | LEDs=2 | switches=3 | rst=0
Time=4950000 | PC=80 | Inst=fe069ee3 | LEDs=2 | switches=3 | rst=0
Time=5050000 | PC=84 | Inst=fe0004e3 | LEDs=2 | switches=3 | rst=0
Time=5150000 | PC=60 | Inst=00c32023 | LEDs=2 | switches=3 | rst=0
Time=5250000 | PC=64 | Inst=00060c63 | LEDs=1 | switches=3 | rst=0
Time=5350000 | PC=68 | Inst=fff60613 | LEDs=1 | switches=3 | rst=0
Time=5450000 | PC=72 | Inst=00300693 | LEDs=1 | switches=3 | rst=0
Time=5550000 | PC=76 | Inst=fff68693 | LEDs=1 | switches=3 | rst=0
Time=5650000 | PC=80 | Inst=fe069ee3 | LEDs=1 | switches=3 | rst=0
Time=5750000 | PC=76 | Inst=fff68693 | LEDs=1 | switches=3 | rst=0
Time=5850000 | PC=80 | Inst=fe069ee3 | LEDs=1 | switches=3 | rst=0
Time=5950000 | PC=76 | Inst=fff68693 | LEDs=1 | switches=3 | rst=0
Time=6050000 | PC=80 | Inst=fe069ee3 | LEDs=1 | switches=3 | rst=0
Time=6150000 | PC=84 | Inst=fe0004e3 | LEDs=1 | switches=3 | rst=0
Time=6250000 | PC=60 | Inst=00c32023 | LEDs=1 | switches=3 | rst=0
Time=6350000 | PC=64 | Inst=00060c63 | LEDs=0 | switches=3 | rst=0
Time=6450000 | PC=88 | Inst=00032023 | LEDs=0 | switches=3 | rst=0
Time=6550000 | PC=92 | Inst=00012603 | LEDs=0 | switches=3 | rst=0
Time=6650000 | PC=96 | Inst=00412083 | LEDs=0 | switches=3 | rst=0
Time=6750000 | PC=100 | Inst=00810113 | LEDs=0 | switches=3 | rst=0
Time=6850000 | PC=104 | Inst=00008067 | LEDs=0 | switches=3 | rst=0
Time=6950000 | PC=40 | Inst=fe0006e3 | LEDs=0 | switches=3 | rst=0
Time=7050000 | PC=20 | Inst=00032023 | LEDs=0 | switches=3 | rst=0
Time=7150000 | PC=24 | Inst=0002a583 | LEDs=0 | switches=3 | rst=0
Time=7250000 | PC=28 | Inst=fe058ee3 | LEDs=0 | switches=3 | rst=0
Time=7350000 | PC=32 | Inst=00058533 | LEDs=0 | switches=3 | rst=0
Time=7450000 | PC=36 | Inst=008000ef | LEDs=0 | switches=3 | rst=0
Time=7550000 | PC=44 | Inst=ff810113 | LEDs=0 | switches=3 | rst=0
Time=7650000 | PC=48 | Inst=00112223 | LEDs=0 | switches=3 | rst=0
Time=7750000 | PC=52 | Inst=00c12023 | LEDs=0 | switches=3 | rst=0
Time=7850000 | PC=56 | Inst=00050633 | LEDs=0 | switches=3 | rst=0
Time=7950000 | PC=60 | Inst=00c32023 | LEDs=0 | switches=3 | rst=0
Time=8050000 | PC=64 | Inst=00060c63 | LEDs=3 | switches=3 | rst=0
Time=8150000 | PC=68 | Inst=fff60613 | LEDs=3 | switches=3 | rst=0
Time=8250000 | PC=72 | Inst=00300693 | LEDs=3 | switches=3 | rst=0
Time=8350000 | PC=76 | Inst=fff68693 | LEDs=3 | switches=3 | rst=0
Time=8450000 | PC=80 | Inst=fe069ee3 | LEDs=3 | switches=3 | rst=0
Time=8550000 | PC=76 | Inst=fff68693 | LEDs=3 | switches=3 | rst=0
Time=8650000 | PC=80 | Inst=fe069ee3 | LEDs=3 | switches=3 | rst=0
Time=8750000 | PC=76 | Inst=fff68693 | LEDs=3 | switches=3 | rst=0
Time=8850000 | PC=80 | Inst=fe069ee3 | LEDs=3 | switches=3 | rst=0
Time=8950000 | PC=84 | Inst=fe0004e3 | LEDs=3 | switches=3 | rst=0
Time=9050000 | PC=60 | Inst=00c32023 | LEDs=3 | switches=3 | rst=0
Time=9150000 | PC=64 | Inst=00060c63 | LEDs=2 | switches=3 | rst=0
Time=9250000 | PC=68 | Inst=fff60613 | LEDs=2 | switches=3 | rst=0
Time=9350000 | PC=72 | Inst=00300693 | LEDs=2 | switches=3 | rst=0
Time=9450000 | PC=76 | Inst=fff68693 | LEDs=2 | switches=3 | rst=0
Time=9550000 | PC=80 | Inst=fe069ee3 | LEDs=2 | switches=3 | rst=0
Time=9650000 | PC=76 | Inst=fff68693 | LEDs=2 | switches=3 | rst=0
Time=9750000 | PC=80 | Inst=fe069ee3 | LEDs=2 | switches=3 | rst=0
Time=9850000 | PC=76 | Inst=fff68693 | LEDs=2 | switches=3 | rst=0
Time=9950000 | PC=80 | Inst=fe069ee3 | LEDs=2 | switches=3 | rst=0
Time=10050000 | PC=84 | Inst=fe0004e3 | LEDs=2 | switches=3 | rst=0
Time=10150000 | PC=60 | Inst=00c32023 | LEDs=2 | switches=3 | rst=0
Time=10250000 | PC=64 | Inst=00060c63 | LEDs=1 | switches=3 | rst=0
Time=10350000 | PC=68 | Inst=fff60613 | LEDs=1 | switches=3 | rst=0
Time=10450000 | PC=72 | Inst=00300693 | LEDs=1 | switches=3 | rst=0
Time=10550000 | PC=76 | Inst=fff68693 | LEDs=1 | switches=3 | rst=0
Time=10650000 | PC=80 | Inst=fe069ee3 | LEDs=1 | switches=3 | rst=0
Time=10750000 | PC=76 | Inst=fff68693 | LEDs=1 | switches=3 | rst=0
Time=10850000 | PC=80 | Inst=fe069ee3 | LEDs=1 | switches=3 | rst=0
Time=10950000 | PC=76 | Inst=fff68693 | LEDs=1 | switches=3 | rst=0
Time=11050000 | PC=80 | Inst=fe069ee3 | LEDs=1 | switches=3 | rst=0
Time=11150000 | PC=84 | Inst=fe0004e3 | LEDs=1 | switches=3 | rst=0
Time=11250000 | PC=60 | Inst=00c32023 | LEDs=1 | switches=3 | rst=0
Time=11350000 | PC=64 | Inst=00060c63 | LEDs=0 | switches=3 | rst=0
Time=11450000 | PC=88 | Inst=00032023 | LEDs=0 | switches=3 | rst=0
Time=11550000 | PC=92 | Inst=00012603 | LEDs=0 | switches=3 | rst=0
Time=11650000 | PC=96 | Inst=00412083 | LEDs=0 | switches=3 | rst=0
Time=11750000 | PC=100 | Inst=00810113 | LEDs=0 | switches=3 | rst=0
Time=11850000 | PC=104 | Inst=00008067 | LEDs=0 | switches=3 | rst=0
Time=11950000 | PC=40 | Inst=fe0006e3 | LEDs=0 | switches=3 | rst=0
Time=12050000 | PC=20 | Inst=00032023 | LEDs=0 | switches=3 | rst=0
Time=12150000 | PC=24 | Inst=0002a583 | LEDs=0 | switches=3 | rst=0
Time=12200000 | PC=24 | Inst=0002a583 | LEDs=0 | switches=0 | rst=0
Time=12250000 | PC=28 | Inst=fe058ee3 | LEDs=0 | switches=0 | rst=0
Time=12350000 | PC=24 | Inst=0002a583 | LEDs=0 | switches=0 | rst=0
Time=12450000 | PC=28 | Inst=fe058ee3 | LEDs=0 | switches=0 | rst=0
Time=12550000 | PC=24 | Inst=0002a583 | LEDs=0 | switches=0 | rst=0
Time=12650000 | PC=28 | Inst=fe058ee3 | LEDs=0 | switches=0 | rst=0
Time=12750000 | PC=24 | Inst=0002a583 | LEDs=0 | switches=0 | rst=0
Time=12850000 | PC=28 | Inst=fe058ee3 | LEDs=0 | switches=0 | rst=0
Time=12950000 | PC=24 | Inst=0002a583 | LEDs=0 | switches=0 | rst=0
Time=13050000 | PC=28 | Inst=fe058ee3 | LEDs=0 | switches=0 | rst=0
Time=13150000 | PC=24 | Inst=0002a583 | LEDs=0 | switches=0 | rst=0
Time=13250000 | PC=28 | Inst=fe058ee3 | LEDs=0 | switches=0 | rst=0
Time=13350000 | PC=24 | Inst=0002a583 | LEDs=0 | switches=0 | rst=0
Time=13450000 | PC=28 | Inst=fe058ee3 | LEDs=0 | switches=0 | rst=0
Time=13550000 | PC=24 | Inst=0002a583 | LEDs=0 | switches=0 | rst=0
Time=13650000 | PC=28 | Inst=fe058ee3 | LEDs=0 | switches=0 | rst=0
Time=13750000 | PC=24 | Inst=0002a583 | LEDs=0 | switches=0 | rst=0
Time=13850000 | PC=28 | Inst=fe058ee3 | LEDs=0 | switches=0 | rst=0
Time=13950000 | PC=24 | Inst=0002a583 | LEDs=0 | switches=0 | rst=0
Time=14050000 | PC=28 | Inst=fe058ee3 | LEDs=0 | switches=0 | rst=0
Time=14150000 | PC=24 | Inst=0002a583 | LEDs=0 | switches=0 | rst=0
Time=14200000 | PC=24 | Inst=0002a583 | LEDs=0 | switches=5 | rst=0
Time=14250000 | PC=28 | Inst=fe058ee3 | LEDs=0 | switches=5 | rst=0
Time=14350000 | PC=32 | Inst=00058533 | LEDs=0 | switches=5 | rst=0
Time=14450000 | PC=36 | Inst=008000ef | LEDs=0 | switches=5 | rst=0
Time=14550000 | PC=44 | Inst=ff810113 | LEDs=0 | switches=5 | rst=0
Time=14650000 | PC=48 | Inst=00112223 | LEDs=0 | switches=5 | rst=0
Time=14750000 | PC=52 | Inst=00c12023 | LEDs=0 | switches=5 | rst=0
Time=14850000 | PC=56 | Inst=00050633 | LEDs=0 | switches=5 | rst=0
Time=14950000 | PC=60 | Inst=00c32023 | LEDs=0 | switches=5 | rst=0
Time=15050000 | PC=64 | Inst=00060c63 | LEDs=5 | switches=5 | rst=0
Time=15150000 | PC=68 | Inst=fff60613 | LEDs=5 | switches=5 | rst=0
Time=15250000 | PC=72 | Inst=00300693 | LEDs=5 | switches=5 | rst=0
Time=15350000 | PC=76 | Inst=fff68693 | LEDs=5 | switches=5 | rst=0
Time=15450000 | PC=80 | Inst=fe069ee3 | LEDs=5 | switches=5 | rst=0
Time=15550000 | PC=76 | Inst=fff68693 | LEDs=5 | switches=5 | rst=0
Time=15650000 | PC=80 | Inst=fe069ee3 | LEDs=5 | switches=5 | rst=0
Time=15750000 | PC=76 | Inst=fff68693 | LEDs=5 | switches=5 | rst=0
Time=15850000 | PC=80 | Inst=fe069ee3 | LEDs=5 | switches=5 | rst=0
Time=15950000 | PC=84 | Inst=fe0004e3 | LEDs=5 | switches=5 | rst=0
Time=16050000 | PC=60 | Inst=00c32023 | LEDs=5 | switches=5 | rst=0
Time=16150000 | PC=64 | Inst=00060c63 | LEDs=4 | switches=5 | rst=0
Time=16250000 | PC=68 | Inst=fff60613 | LEDs=4 | switches=5 | rst=0
Time=16350000 | PC=72 | Inst=00300693 | LEDs=4 | switches=5 | rst=0
Time=16450000 | PC=76 | Inst=fff68693 | LEDs=4 | switches=5 | rst=0
Time=16550000 | PC=80 | Inst=fe069ee3 | LEDs=4 | switches=5 | rst=0
Time=16650000 | PC=76 | Inst=fff68693 | LEDs=4 | switches=5 | rst=0
Time=16750000 | PC=80 | Inst=fe069ee3 | LEDs=4 | switches=5 | rst=0
Time=16850000 | PC=76 | Inst=fff68693 | LEDs=4 | switches=5 | rst=0
Time=16950000 | PC=80 | Inst=fe069ee3 | LEDs=4 | switches=5 | rst=0
Time=17050000 | PC=84 | Inst=fe0004e3 | LEDs=4 | switches=5 | rst=0
Time=17150000 | PC=60 | Inst=00c32023 | LEDs=4 | switches=5 | rst=0
Time=17250000 | PC=64 | Inst=00060c63 | LEDs=3 | switches=5 | rst=0
Time=17350000 | PC=68 | Inst=fff60613 | LEDs=3 | switches=5 | rst=0
Time=17450000 | PC=72 | Inst=00300693 | LEDs=3 | switches=5 | rst=0
Time=17550000 | PC=76 | Inst=fff68693 | LEDs=3 | switches=5 | rst=0
Time=17650000 | PC=80 | Inst=fe069ee3 | LEDs=3 | switches=5 | rst=0
Time=17750000 | PC=76 | Inst=fff68693 | LEDs=3 | switches=5 | rst=0
Time=17850000 | PC=80 | Inst=fe069ee3 | LEDs=3 | switches=5 | rst=0
Time=17950000 | PC=76 | Inst=fff68693 | LEDs=3 | switches=5 | rst=0
Time=18050000 | PC=80 | Inst=fe069ee3 | LEDs=3 | switches=5 | rst=0
Time=18150000 | PC=84 | Inst=fe0004e3 | LEDs=3 | switches=5 | rst=0
Time=18250000 | PC=60 | Inst=00c32023 | LEDs=3 | switches=5 | rst=0
Time=18350000 | PC=64 | Inst=00060c63 | LEDs=2 | switches=5 | rst=0
Time=18450000 | PC=68 | Inst=fff60613 | LEDs=2 | switches=5 | rst=0
Time=18550000 | PC=72 | Inst=00300693 | LEDs=2 | switches=5 | rst=0
Time=18650000 | PC=76 | Inst=fff68693 | LEDs=2 | switches=5 | rst=0
Time=18750000 | PC=80 | Inst=fe069ee3 | LEDs=2 | switches=5 | rst=0
Time=18850000 | PC=76 | Inst=fff68693 | LEDs=2 | switches=5 | rst=0
Time=18950000 | PC=80 | Inst=fe069ee3 | LEDs=2 | switches=5 | rst=0
Time=19050000 | PC=76 | Inst=fff68693 | LEDs=2 | switches=5 | rst=0
Time=19150000 | PC=80 | Inst=fe069ee3 | LEDs=2 | switches=5 | rst=0
Time=19250000 | PC=84 | Inst=fe0004e3 | LEDs=2 | switches=5 | rst=0
Time=19350000 | PC=60 | Inst=00c32023 | LEDs=2 | switches=5 | rst=0
Time=19450000 | PC=64 | Inst=00060c63 | LEDs=1 | switches=5 | rst=0
Time=19550000 | PC=68 | Inst=fff60613 | LEDs=1 | switches=5 | rst=0
Time=19650000 | PC=72 | Inst=00300693 | LEDs=1 | switches=5 | rst=0
Time=19750000 | PC=76 | Inst=fff68693 | LEDs=1 | switches=5 | rst=0
Time=19850000 | PC=80 | Inst=fe069ee3 | LEDs=1 | switches=5 | rst=0
Time=19950000 | PC=76 | Inst=fff68693 | LEDs=1 | switches=5 | rst=0
Time=20050000 | PC=80 | Inst=fe069ee3 | LEDs=1 | switches=5 | rst=0
Time=20150000 | PC=76 | Inst=fff68693 | LEDs=1 | switches=5 | rst=0
Time=20250000 | PC=80 | Inst=fe069ee3 | LEDs=1 | switches=5 | rst=0
Time=20350000 | PC=84 | Inst=fe0004e3 | LEDs=1 | switches=5 | rst=0
Time=20450000 | PC=60 | Inst=00c32023 | LEDs=1 | switches=5 | rst=0
Time=20550000 | PC=64 | Inst=00060c63 | LEDs=0 | switches=5 | rst=0
Time=20650000 | PC=88 | Inst=00032023 | LEDs=0 | switches=5 | rst=0
Time=20750000 | PC=92 | Inst=00012603 | LEDs=0 | switches=5 | rst=0
Time=20850000 | PC=96 | Inst=00412083 | LEDs=0 | switches=5 | rst=0
Time=20950000 | PC=100 | Inst=00810113 | LEDs=0 | switches=5 | rst=0
Time=21050000 | PC=104 | Inst=00008067 | LEDs=0 | switches=5 | rst=0
Time=21150000 | PC=40 | Inst=fe0006e3 | LEDs=0 | switches=5 | rst=0
Time=21250000 | PC=20 | Inst=00032023 | LEDs=0 | switches=5 | rst=0
Time=21350000 | PC=24 | Inst=0002a583 | LEDs=0 | switches=5 | rst=0
Time=21450000 | PC=28 | Inst=fe058ee3 | LEDs=0 | switches=5 | rst=0
Time=21550000 | PC=32 | Inst=00058533 | LEDs=0 | switches=5 | rst=0
Time=21650000 | PC=36 | Inst=008000ef | LEDs=0 | switches=5 | rst=0
Time=21750000 | PC=44 | Inst=ff810113 | LEDs=0 | switches=5 | rst=0
Time=21850000 | PC=48 | Inst=00112223 | LEDs=0 | switches=5 | rst=0
Time=21950000 | PC=52 | Inst=00c12023 | LEDs=0 | switches=5 | rst=0
Time=22050000 | PC=56 | Inst=00050633 | LEDs=0 | switches=5 | rst=0
Time=22150000 | PC=60 | Inst=00c32023 | LEDs=0 | switches=5 | rst=0
Time=22250000 | PC=64 | Inst=00060c63 | LEDs=5 | switches=5 | rst=0
Time=22350000 | PC=68 | Inst=fff60613 | LEDs=5 | switches=5 | rst=0
Time=22450000 | PC=72 | Inst=00300693 | LEDs=5 | switches=5 | rst=0
Time=22550000 | PC=76 | Inst=fff68693 | LEDs=5 | switches=5 | rst=0
Time=22650000 | PC=80 | Inst=fe069ee3 | LEDs=5 | switches=5 | rst=0
Time=22750000 | PC=76 | Inst=fff68693 | LEDs=5 | switches=5 | rst=0
Time=22850000 | PC=80 | Inst=fe069ee3 | LEDs=5 | switches=5 | rst=0
Time=22950000 | PC=76 | Inst=fff68693 | LEDs=5 | switches=5 | rst=0
Time=23050000 | PC=80 | Inst=fe069ee3 | LEDs=5 | switches=5 | rst=0
Time=23150000 | PC=84 | Inst=fe0004e3 | LEDs=5 | switches=5 | rst=0
Time=23250000 | PC=60 | Inst=00c32023 | LEDs=5 | switches=5 | rst=0
Time=23350000 | PC=64 | Inst=00060c63 | LEDs=4 | switches=5 | rst=0
Time=23450000 | PC=68 | Inst=fff60613 | LEDs=4 | switches=5 | rst=0
Time=23550000 | PC=72 | Inst=00300693 | LEDs=4 | switches=5 | rst=0
Time=23650000 | PC=76 | Inst=fff68693 | LEDs=4 | switches=5 | rst=0
Time=23750000 | PC=80 | Inst=fe069ee3 | LEDs=4 | switches=5 | rst=0
Time=23850000 | PC=76 | Inst=fff68693 | LEDs=4 | switches=5 | rst=0
Time=23950000 | PC=80 | Inst=fe069ee3 | LEDs=4 | switches=5 | rst=0
Time=24050000 | PC=76 | Inst=fff68693 | LEDs=4 | switches=5 | rst=0
Time=24150000 | PC=80 | Inst=fe069ee3 | LEDs=4 | switches=5 | rst=0
Time=24250000 | PC=84 | Inst=fe0004e3 | LEDs=4 | switches=5 | rst=0
Time=24350000 | PC=60 | Inst=00c32023 | LEDs=4 | switches=5 | rst=0
Time=24450000 | PC=64 | Inst=00060c63 | LEDs=3 | switches=5 | rst=0
Time=24550000 | PC=68 | Inst=fff60613 | LEDs=3 | switches=5 | rst=0
Time=24650000 | PC=72 | Inst=00300693 | LEDs=3 | switches=5 | rst=0
Time=24750000 | PC=76 | Inst=fff68693 | LEDs=3 | switches=5 | rst=0
Time=24850000 | PC=80 | Inst=fe069ee3 | LEDs=3 | switches=5 | rst=0
Time=24950000 | PC=76 | Inst=fff68693 | LEDs=3 | switches=5 | rst=0
Time=25050000 | PC=80 | Inst=fe069ee3 | LEDs=3 | switches=5 | rst=0
Time=25150000 | PC=76 | Inst=fff68693 | LEDs=3 | switches=5 | rst=0
Time=25250000 | PC=80 | Inst=fe069ee3 | LEDs=3 | switches=5 | rst=0
Time=25350000 | PC=84 | Inst=fe0004e3 | LEDs=3 | switches=5 | rst=0
Time=25450000 | PC=60 | Inst=00c32023 | LEDs=3 | switches=5 | rst=0
Time=25550000 | PC=64 | Inst=00060c63 | LEDs=2 | switches=5 | rst=0
Time=25650000 | PC=68 | Inst=fff60613 | LEDs=2 | switches=5 | rst=0
Time=25750000 | PC=72 | Inst=00300693 | LEDs=2 | switches=5 | rst=0
Time=25850000 | PC=76 | Inst=fff68693 | LEDs=2 | switches=5 | rst=0
Time=25950000 | PC=80 | Inst=fe069ee3 | LEDs=2 | switches=5 | rst=0
Time=26050000 | PC=76 | Inst=fff68693 | LEDs=2 | switches=5 | rst=0
Time=26150000 | PC=80 | Inst=fe069ee3 | LEDs=2 | switches=5 | rst=0
Time=26250000 | PC=76 | Inst=fff68693 | LEDs=2 | switches=5 | rst=0
Time=26350000 | PC=80 | Inst=fe069ee3 | LEDs=2 | switches=5 | rst=0
Time=26450000 | PC=84 | Inst=fe0004e3 | LEDs=2 | switches=5 | rst=0
Time=26550000 | PC=60 | Inst=00c32023 | LEDs=2 | switches=5 | rst=0
Time=26650000 | PC=64 | Inst=00060c63 | LEDs=1 | switches=5 | rst=0
Time=26750000 | PC=68 | Inst=fff60613 | LEDs=1 | switches=5 | rst=0
Time=26850000 | PC=72 | Inst=00300693 | LEDs=1 | switches=5 | rst=0
Time=26950000 | PC=76 | Inst=fff68693 | LEDs=1 | switches=5 | rst=0
Time=27050000 | PC=80 | Inst=fe069ee3 | LEDs=1 | switches=5 | rst=0
Time=27150000 | PC=76 | Inst=fff68693 | LEDs=1 | switches=5 | rst=0
Time=27250000 | PC=80 | Inst=fe069ee3 | LEDs=1 | switches=5 | rst=0
Time=27350000 | PC=76 | Inst=fff68693 | LEDs=1 | switches=5 | rst=0
Time=27450000 | PC=80 | Inst=fe069ee3 | LEDs=1 | switches=5 | rst=0
Time=27550000 | PC=84 | Inst=fe0004e3 | LEDs=1 | switches=5 | rst=0
Time=27650000 | PC=60 | Inst=00c32023 | LEDs=1 | switches=5 | rst=0
Time=27750000 | PC=64 | Inst=00060c63 | LEDs=0 | switches=5 | rst=0
Time=27850000 | PC=88 | Inst=00032023 | LEDs=0 | switches=5 | rst=0
Time=27950000 | PC=92 | Inst=00012603 | LEDs=0 | switches=5 | rst=0
Time=28050000 | PC=96 | Inst=00412083 | LEDs=0 | switches=5 | rst=0
Time=28150000 | PC=100 | Inst=00810113 | LEDs=0 | switches=5 | rst=0
Time=28250000 | PC=104 | Inst=00008067 | LEDs=0 | switches=5 | rst=0
Time=28350000 | PC=40 | Inst=fe0006e3 | LEDs=0 | switches=5 | rst=0
Time=28450000 | PC=20 | Inst=00032023 | LEDs=0 | switches=5 | rst=0
Time=28550000 | PC=24 | Inst=0002a583 | LEDs=0 | switches=5 | rst=0
Time=28650000 | PC=28 | Inst=fe058ee3 | LEDs=0 | switches=5 | rst=0
Time=28750000 | PC=32 | Inst=00058533 | LEDs=0 | switches=5 | rst=0
Time=28850000 | PC=36 | Inst=008000ef | LEDs=0 | switches=5 | rst=0
Time=28950000 | PC=44 | Inst=ff810113 | LEDs=0 | switches=5 | rst=0
Time=29050000 | PC=48 | Inst=00112223 | LEDs=0 | switches=5 | rst=0
Time=29150000 | PC=52 | Inst=00c12023 | LEDs=0 | switches=5 | rst=0
Time=29200000 | PC=52 | Inst=00c12023 | LEDs=0 | switches=0 | rst=0
Time=29250000 | PC=56 | Inst=00050633 | LEDs=0 | switches=0 | rst=0
Time=29350000 | PC=60 | Inst=00c32023 | LEDs=0 | switches=0 | rst=0
Time=29450000 | PC=64 | Inst=00060c63 | LEDs=5 | switches=0 | rst=0
Time=29550000 | PC=68 | Inst=fff60613 | LEDs=5 | switches=0 | rst=0
Time=29650000 | PC=72 | Inst=00300693 | LEDs=5 | switches=0 | rst=0
Time=29750000 | PC=76 | Inst=fff68693 | LEDs=5 | switches=0 | rst=0
Time=29850000 | PC=80 | Inst=fe069ee3 | LEDs=5 | switches=0 | rst=0
Time=29950000 | PC=76 | Inst=fff68693 | LEDs=5 | switches=0 | rst=0
Time=30050000 | PC=80 | Inst=fe069ee3 | LEDs=5 | switches=0 | rst=0
Time=30150000 | PC=76 | Inst=fff68693 | LEDs=5 | switches=0 | rst=0
Time=30250000 | PC=80 | Inst=fe069ee3 | LEDs=5 | switches=0 | rst=0
Time=30350000 | PC=84 | Inst=fe0004e3 | LEDs=5 | switches=0 | rst=0
Time=30450000 | PC=60 | Inst=00c32023 | LEDs=5 | switches=0 | rst=0
Time=30550000 | PC=64 | Inst=00060c63 | LEDs=4 | switches=0 | rst=0
Time=30650000 | PC=68 | Inst=fff60613 | LEDs=4 | switches=0 | rst=0
Time=30750000 | PC=72 | Inst=00300693 | LEDs=4 | switches=0 | rst=0
Time=30850000 | PC=76 | Inst=fff68693 | LEDs=4 | switches=0 | rst=0
Time=30950000 | PC=80 | Inst=fe069ee3 | LEDs=4 | switches=0 | rst=0
Time=31050000 | PC=76 | Inst=fff68693 | LEDs=4 | switches=0 | rst=0
Time=31150000 | PC=80 | Inst=fe069ee3 | LEDs=4 | switches=0 | rst=0
Time=31250000 | PC=76 | Inst=fff68693 | LEDs=4 | switches=0 | rst=0
Time=31350000 | PC=80 | Inst=fe069ee3 | LEDs=4 | switches=0 | rst=0
Time=31450000 | PC=84 | Inst=fe0004e3 | LEDs=4 | switches=0 | rst=0
Time=31550000 | PC=60 | Inst=00c32023 | LEDs=4 | switches=0 | rst=0
Time=31650000 | PC=64 | Inst=00060c63 | LEDs=3 | switches=0 | rst=0
Time=31750000 | PC=68 | Inst=fff60613 | LEDs=3 | switches=0 | rst=0
Time=31850000 | PC=72 | Inst=00300693 | LEDs=3 | switches=0 | rst=0
Time=31950000 | PC=76 | Inst=fff68693 | LEDs=3 | switches=0 | rst=0
Time=32050000 | PC=80 | Inst=fe069ee3 | LEDs=3 | switches=0 | rst=0
Time=32150000 | PC=76 | Inst=fff68693 | LEDs=3 | switches=0 | rst=0
Time=32250000 | PC=80 | Inst=fe069ee3 | LEDs=3 | switches=0 | rst=0
Time=32350000 | PC=76 | Inst=fff68693 | LEDs=3 | switches=0 | rst=0
Time=32450000 | PC=80 | Inst=fe069ee3 | LEDs=3 | switches=0 | rst=0
Time=32550000 | PC=84 | Inst=fe0004e3 | LEDs=3 | switches=0 | rst=0
Time=32650000 | PC=60 | Inst=00c32023 | LEDs=3 | switches=0 | rst=0
Time=32750000 | PC=64 | Inst=00060c63 | LEDs=2 | switches=0 | rst=0
